{
  "styling": "\\textsf{%s}",
  "newline": "\\quad ",
  "alphabet": [
    "a",
    "i",
    "u",
    "e",
    "o",
    "l",
    "r",
    "n",
    "m",
    "p",
    "t",
    "c",
    "b",
    "d",
    "g",
    "f",
    "s",
    "h",
    "ṫ",
    "ḋ",
    "ṡ",
    "#",
    "+",
    "+*",
    "@",
    "*"
  ],
  "indices": [],
  "tags": []
}