{
  "styling": "\\textsf{%s}",
  "newline": "\\quad ",
  "alphabet": [
    "c",
    "e",
    "n",
    "ŋ",
    "v",
    "w",
    "o",
    "s",
    "z",
    "þ",
    "š",
    "ž",
    "r",
    "l",
    "x",
    "ẋ",
    "m",
    "a",
    "f",
    "g",
    "p",
    "t",
    "č",
    "ï",
    "j",
    "i",
    "d",
    "h",
    "ê",
    "ô",
    "â",
    "u",
    "ë",
    "#",
    "+",
    "+*",
    "@",
    "*"
  ],
  "indices": [
    {
      "key": "inf",
      "indextitle": "Index by infinitive",
      "indexsectionstyle": "\\subsection*{%s}",
      "customentrystyle": "\\textsf{%s}"
    }
  ],
  "tags": [
    {
      "name": "inf",
      "styling": "Infinitive: \\textsf{%s}"
    },
    {
      "name": "af",
      "styling": "Inflections: \\textsf{%s}"
    }
  ]
}