    Spring  Summer  Autumn  Winter  # Days
  0 -50..49 -51..49 -51..49 -50..50 403
  1 -50..50 -50..49 -51..49 -51..49 403
  2 -50..50 -50..50 -50..49 -51..49 403
  3 -51..49 -50..50 -50..50 -50..49 403
  4 -51..49 -51..49 -50..50 -50..50 404
  5 -50..49 -51..49 -51..49 -50..50 403
  6 -50..50 -50..49 -51..49 -51..49 403
  7 -51..49 -50..50 -50..50 -50..49 403
  8 -51..49 -51..49 -50..50 -50..50 404
  9 -50..49 -51..49 -51..49 -50..50 403
 10 -50..50 -50..49 -51..49 -51..49 403
 11 -50..50 -50..50 -50..49 -51..49 403
 12 -51..49 -50..50 -50..50 -50..49 403
 13 -51..49 -51..49 -51..49 -50..50 404
 14 -50..50 -50..49 -51..49 -51..49 403
 15 -50..50 -50..50 -50..49 -51..49 403
 16 -51..49 -50..50 -50..50 -50..49 403
 17 -51..49 -51..49 -50..50 -50..50 404
 18 -50..49 -51..49 -51..49 -50..50 403
 19 -50..50 -50..49 -51..49 -51..49 403
 20 -51..49 -50..50 -50..50 -50..49 403
 21 -51..49 -51..49 -50..50 -50..50 404
 22 -50..49 -51..49 -51..49 -50..50 403
 23 -50..50 -50..49 -51..49 -51..49 403
 24 -50..50 -50..50 -50..49 -51..49 403
 25 -51..49 -50..50 -50..50 -50..49 403
 26 -51..49 -51..49 -51..49 -50..50 404
 27 -50..50 -50..49 -51..49 -51..49 403
 28 -50..50 -50..50 -50..49 -51..49 403
 29 -51..49 -50..50 -50..50 -50..49 403
 30 -51..49 -51..49 -50..50 -50..50 404
 31 -50..49 -51..49 -51..49 -50..50 403
 32 -50..50 -50..49 -51..49 -51..49 403
 33 -51..49 -50..50 -50..50 -50..49 403
 34 -51..49 -51..49 -50..50 -50..50 404
 35 -50..49 -51..49 -51..49 -50..50 403
 36 -50..50 -50..49 -51..49 -51..49 403
 37 -50..50 -50..50 -50..49 -51..49 403
 38 -51..49 -50..50 -50..50 -50..49 403
 39 -51..49 -51..49 -50..50 -50..50 404
 40 -50..50 -50..49 -51..49 -51..49 403
 41 -50..50 -50..50 -50..49 -51..49 403
 42 -51..49 -50..50 -50..50 -50..49 403
 43 -51..49 -51..49 -50..50 -50..50 404
 44 -50..49 -51..49 -51..49 -50..50 403
 45 -50..50 -50..49 -51..49 -51..49 403
 46 -50..50 -50..50 -50..50 -50..49 403
 47 -51..49 -51..49 -50..50 -50..50 404
 48 -50..49 -51..49 -51..49 -50..50 403
 49 -50..50 -50..49 -51..49 -51..49 403
 50 -50..50 -50..50 -50..49 -51..49 403
 51 -51..49 -50..50 -50..50 -50..49 403
 52 -51..49 -51..49 -50..50 -50..50 404
 53 -50..50 -50..49 -51..49 -51..49 403
 54 -50..50 -50..50 -50..49 -51..49 403
 55 -51..49 -50..50 -50..50 -50..49 403
 56 -51..49 -51..49 -50..50 -50..50 404
 57 -50..49 -51..49 -51..49 -50..50 403
 58 -50..50 -50..49 -51..49 -51..49 403
 59 -50..50 -50..50 -50..50 -50..49 403
 60 -51..49 -51..49 -50..50 -50..50 404
 61 -50..49 -51..49 -51..49 -50..50 403
 62 -50..50 -50..49 -51..49 -51..49 403
 63 -50..50 -50..50 -50..49 -51..49 403
 64 -51..49 -50..50 -50..50 -50..49 403
 65 -51..49 -51..49 -50..50 -50..50 404
 66 -50..50 -50..49 -51..49 -51..49 403
 67 -50..50 -50..50 -50..49 -51..49 403
 68 -51..49 -50..50 -50..50 -50..49 403
 69 -51..49 -51..49 -50..50 -50..50 404
 70 -50..49 -51..49 -51..49 -50..50 403
 71 -50..50 -50..49 -51..49 -51..49 403
 72 -50..50 -50..50 -50..49 -51..49 403
 73 -51..49 -51..49 -50..50 -50..50 404
 74 -50..49 -51..49 -51..49 -50..50 403
 75 -50..50 -50..49 -51..49 -51..49 403
 76 -50..50 -50..50 -50..49 -51..49 403
 77 -51..49 -50..50 -50..50 -50..49 403
 78 -51..49 -51..49 -50..50 -50..50 404
 79 -50..49 -51..49 -51..49 -51..49 403
 80 -50..50 -50..50 -50..49 -51..49 403
 81 -51..49 -50..50 -50..50 -50..49 403
 82 -51..49 -51..49 -50..50 -50..50 404
 83 -50..49 -51..49 -51..49 -50..50 403
 84 -50..50 -50..49 -51..49 -51..49 403
 85 -50..50 -50..50 -50..49 -51..49 403
 86 -51..49 -51..49 -50..50 -50..50 404
 87 -50..49 -51..49 -51..49 -50..50 403
 88 -50..50 -50..49 -51..49 -51..49 403
 89 -50..50 -50..50 -50..49 -51..49 403
 90 -51..49 -50..50 -50..50 -50..49 403
 91 -51..49 -51..49 -50..50 -50..50 404
 92 -50..49 -51..49 -51..49 -51..49 403
 93 -50..50 -50..50 -50..49 -51..49 403
 94 -51..49 -50..50 -50..50 -50..49 403
 95 -51..49 -51..49 -50..50 -50..50 404
 96 -50..49 -51..49 -51..49 -50..50 403
 97 -50..50 -50..49 -51..49 -51..49 403
 98 -50..50 -50..50 -50..49 -51..49 403
 99 -51..49 -51..49 -50..50 -50..50 404
100 -50..49 -51..49 -51..49 -50..50 403
101 -50..50 -50..49 -51..49 -51..49 403
102 -50..50 -50..50 -50..49 -51..49 403
103 -51..49 -50..50 -50..50 -50..49 403
104 -51..49 -51..49 -50..50 -50..50 404
105 -50..49 -51..49 -51..49 -50..50 403
106 -50..50 -50..50 -50..49 -51..49 403
107 -51..49 -50..50 -50..50 -50..49 403
108 -51..49 -51..49 -50..50 -50..50 404
109 -50..49 -51..49 -51..49 -50..50 403
110 -50..50 -50..49 -51..49 -51..49 403
111 -50..50 -50..50 -50..49 -51..49 403
112 -51..49 -50..50 -50..50 -50..50 404
113 -50..49 -51..49 -51..49 -50..50 403
114 -50..50 -50..49 -51..49 -51..49 403
115 -50..50 -50..50 -50..49 -51..49 403
116 -51..49 -50..50 -50..50 -50..49 403
117 -51..49 -51..49 -50..50 -50..50 404
118 -50..49 -51..49 -51..49 -50..50 403
119 -50..50 -50..50 -50..49 -51..49 403
120 -51..49 -50..50 -50..50 -50..49 403
121 -51..49 -51..49 -50..50 -50..50 404
122 -50..49 -51..49 -51..49 -50..50 403
123 -50..50 -50..49 -51..49 -51..49 403
124 -50..50 -50..50 -50..49 -51..49 403
125 -51..49 -50..50 -50..50 -50..50 404
126 -50..49 -51..49 -51..49 -50..50 403
127 -50..50 -50..49 -51..49 -51..49 403
128 -50..50 -50..50 -50..49 -51..49 403
129 -51..49 -50..50 -50..50 -50..49 403
130 -51..49 -51..49 -50..50 -50..50 404
131 -50..49 -51..49 -51..49 -50..50 403
132 -50..50 -50..50 -50..49 -51..49 403
133 -51..49 -50..50 -50..50 -50..49 403
134 -51..49 -51..49 -50..50 -50..50 404
135 -50..49 -51..49 -51..49 -50..50 403
136 -50..50 -50..49 -51..49 -51..49 403
137 -50..50 -50..50 -50..49 -51..49 403
138 -51..49 -50..50 -50..50 -50..50 404
